…
word_ratios 
```

    ## # A tibble: 636 x 2
    ##    word      logratio
    ##    <chr>        <dbl>
    ##  1 biden      0.0173 
    ##  2 vp         0.0141 
    ##  3 america    0.0101 
    ##  4 president  0.00906
    ##  5 joe        0.00765
    ##  6 vote       0.00733
    ##  7 nation     0.00719
    ##  8 join       0.00638
    ##  9 day        0.00606
    ## 10 #teamjoe   0.00524
    ## # … with 626 more rows
…
``` r
bigram_counts <- bigrams_filtered %>%
  count(word1, word2, sort = T)
bigram_counts 
```

    ## # A tibble: 21,717 x 3
    ##    word1    word2        n
    ##    <chr>    <chr>    <int>
    ##  1 health   care       276
    ##  2 middle   class      111
    ##  3 it’s     time       100
    ##  4 climate  change      99
    ##  5 donald   trump       98
    ##  6 gun      violence    90
    ##  7 vp       biden       81
    ##  8 wall     street      70
    ##  9 white    house       68
    ## 10 american people      65
    ## # … with 21,707 more rows
…
