…
word_ratios 
```

    ## # A tibble: 691 x 2
    ##    word      logratio
    ##    <chr>        <dbl>
    ##  1 biden         4.38
    ##  2 #teamjoe      3.82
    ##  3 obamacare     3.49
    ##  4 rsvp          3.49
    ##  5 folks         3.32
    ##  6 soul          3.32
    ##  7 vision        3.18
    ##  8 de            3.06
    ##  9 code          3.02
    ## 10 educators     3.02
    ## # … with 681 more rows
…
``` r
bigram_counts <- bigrams_filtered %>%
  count(word1, word2, sort = T)
bigram_counts 
```

    ## # A tibble: 21,107 x 3
    ##    word1      word2        n
    ##    <chr>      <chr>    <int>
    ##  1 health     care       319
    ##  2 donald     trump      170
    ##  3 gun        violence   147
    ##  4 climate    change     144
    ##  5 middle     class      104
    ##  6 it’s       time        97
    ##  7 white      house       94
    ##  8 climate    crisis      75
    ##  9 structural change      75
    ## 10 fossil     fuel        73
    ## # … with 21,097 more rows
…
